…
  # build df
  as_tibble() %>%
  na_if("") %>%
  filter(!is.na(.[[1]])) %>%
  slice(str_which(.[[1]], keys[1])[1]:str_which(.[[1]], keys[2])[1])

df
## # A tibble: 43 x 7
##    V1          V2    V3    V4    V5    V6    V7   
##    <chr>       <chr> <chr> <chr> <chr> <chr> <chr>
##  1 Sex         <NA>  <NA>  <NA>  <NA>  <NA>  <NA> 
##  2 Male        96.7  70.6  1,477 96.4  58.3  1,463
##  3 Female      97.1  68.8  1,382 97.2  59.6  1,426
##  4 Birth order <NA>  <NA>  <NA>  <NA>  <NA>  <NA> 
##  5 1           98.2  66.3  694   97.1  56.2  615  
##  6 2-3         97.3  70.9  970   97.9  61.3  1,010
##  7 4-5         98.2  71.5  636   96.8  56.4  607  
##  8 6+          93.2  69.8  558   94.7  60.0  658  
##  9 Residence   <NA>  <NA>  <NA>  <NA>  <NA>  <NA> 
## 10 Urban       96.5  63.5  670   97.1  54.2  613  
## # ... with 33 more rows
…
``` r
df_row_headr <- df %>%
  mutate(row_grp = if_else(is.na(.[[2]]) | str_detect(.[[1]],str_c(keys, collapse = "|")), .[[1]], NA_character_)) %>%
  fill(row_grp) %>%
  filter(!is.na(.[2])) %>%
  mutate(row_grp = if_else(is.na(row_grp), .[[1]], row_grp)) %>%
  select(row_grp, everything())

df_row_headr
## # A tibble: 36 x 8
##    row_grp     V1            V2    V3    V4    V5    V6    V7   
##    <chr>       <chr>         <chr> <chr> <chr> <chr> <chr> <chr>
##  1 Sex         Male          96.7  70.6  1,477 96.4  58.3  1,463
##  2 Sex         Female        97.1  68.8  1,382 97.2  59.6  1,426
##  3 Birth order 1             98.2  66.3  694   97.1  56.2  615  
##  4 Birth order 2-3           97.3  70.9  970   97.9  61.3  1,010
##  5 Birth order 4-5           98.2  71.5  636   96.8  56.4  607  
##  6 Birth order 6+            93.2  69.8  558   94.7  60.0  658  
##  7 Residence   Urban         96.5  63.5  670   97.1  54.2  613  
##  8 Residence   Rural         97.1  71.6  2,189 96.7  60.2  2,277
##  9 Region      South Central 95.8  65.4  360   95.3  48.2  386  
## 10 Region      North Central 96.9  67.0  313   95.1  53.3  282  
## # ... with 26 more rows
…
# In the above image, we see that Table 10.4 has a set of 3 column headers
# repeated twice - once for each age group: 12-23 month and 24-35 months
headr_list <- list(
  child = c("vacc-card-ever", "vacc-card-seen","denom"),
  parent = c("age12-23m","age24-35m")
  )
headers <- make_col_headr(headr_list$child, headr_list$parent)
headers
## [1] "vacc-card-ever_age12-23m" "vacc-card-seen_age12-23m" "denom_age12-23m"         
## [4] "vacc-card-ever_age24-35m" "vacc-card-seen_age24-35m" "denom_age24-35m"

# we can now set the appropriate column headers
df_row_headr %>%
  set_names(c("row_grp", "row_lbl", headers))
## # A tibble: 36 x 8
##    row_grp row_lbl `vacc-card-ever… `vacc-card-seen… `denom_age12-23… `vacc-card-ever…
##    <chr>   <chr>   <chr>            <chr>            <chr>            <chr>           
##  1 Sex     Male    96.7             70.6             1,477            96.4            
##  2 Sex     Female  97.1             68.8             1,382            97.2            
##  3 Birth … 1       98.2             66.3             694              97.1            
##  4 Birth … 2-3     97.3             70.9             970              97.9            
##  5 Birth … 4-5     98.2             71.5             636              96.8            
##  6 Birth … 6+      93.2             69.8             558              94.7            
##  7 Reside… Urban   96.5             63.5             670              97.1            
##  8 Reside… Rural   97.1             71.6             2,189            96.7            
##  9 Region  South … 95.8             65.4             360              95.3            
## 10 Region  North … 96.9             67.0             313              95.1            
## # ... with 26 more rows, and 2 more variables: `vacc-card-seen_age24-35m` <chr>,
## #   `denom_age24-35m` <chr>
```

#### Tidy up the data frame

``` r
tidy_df <- df_row_headr %>%
  set_names(c("row_grp", "row_lbl", headers)) %>%
  gather("indicator", "value", -row_grp, -row_lbl) %>%
  separate(indicator, c("indicator","denom_lbl"), sep = "_")

tidy_df
## # A tibble: 216 x 5
##    row_grp     row_lbl       indicator      denom_lbl value
##    <chr>       <chr>         <chr>          <chr>     <chr>
##  1 Sex         Male          vacc-card-ever age12-23m 96.7 
##  2 Sex         Female        vacc-card-ever age12-23m 97.1 
##  3 Birth order 1             vacc-card-ever age12-23m 98.2 
##  4 Birth order 2-3           vacc-card-ever age12-23m 97.3 
##  5 Birth order 4-5           vacc-card-ever age12-23m 98.2 
##  6 Birth order 6+            vacc-card-ever age12-23m 93.2 
##  7 Residence   Urban         vacc-card-ever age12-23m 96.5 
##  8 Residence   Rural         vacc-card-ever age12-23m 97.1 
##  9 Region      South Central vacc-card-ever age12-23m 95.8 
## 10 Region      North Central vacc-card-ever age12-23m 96.9 
## # ... with 206 more rows
```
…
scrape_table(
  source_folder = "report-pdfs",
  source = "dhs_uganda_2016",
  tbl_id = "tbl_10.4",
  pg = 211,
  keys = c("Sex", "Total"),
  headers = headr_list,
  str_split_regex = "\\s(?=\\d+.\\d)"
  )
## [[1]]
## # A tibble: 36 x 8
##    row_grp row_lbl `vacc-card-ever… `vacc-card-seen… `denom_age12-23… `vacc-card-ever…
##    <chr>   <chr>   <chr>            <chr>            <chr>            <chr>           
##  1 Sex     Male    96.7             70.6             1477             96.4            
##  2 Sex     Female  97.1             68.8             1382             97.2            
##  3 Birth … 1       98.2             66.3             694              97.1            
##  4 Birth … 2-3     97.3             70.9             970              97.9            
##  5 Birth … 4-5     98.2             71.5             636              96.8            
##  6 Birth … 6+      93.2             69.8             558              94.7            
##  7 Reside… Urban   96.5             63.5             670              97.1            
##  8 Reside… Rural   97.1             71.6             2189             96.7            
##  9 Region  South … 95.8             65.4             360              95.3            
## 10 Region  North … 96.9             67.0             313              95.1            
## # ... with 26 more rows, and 2 more variables: `vacc-card-seen_age24-35` <chr>,
## #   `denom_age24-35` <chr>
## 
## [[2]]
## # A tibble: 216 x 6
##    source          tbl_id   row_grp     row_lbl       indicator                value
##    <chr>           <chr>    <chr>       <chr>         <chr>                    <chr>
##  1 dhs_uganda_2016 tbl_10.4 Sex         Male          vacc-card-ever_age12-23m 96.7 
##  2 dhs_uganda_2016 tbl_10.4 Sex         Female        vacc-card-ever_age12-23m 97.1 
##  3 dhs_uganda_2016 tbl_10.4 Birth order 1             vacc-card-ever_age12-23m 98.2 
##  4 dhs_uganda_2016 tbl_10.4 Birth order 2-3           vacc-card-ever_age12-23m 97.3 
##  5 dhs_uganda_2016 tbl_10.4 Birth order 4-5           vacc-card-ever_age12-23m 98.2 
##  6 dhs_uganda_2016 tbl_10.4 Birth order 6+            vacc-card-ever_age12-23m 93.2 
##  7 dhs_uganda_2016 tbl_10.4 Residence   Urban         vacc-card-ever_age12-23m 96.5 
##  8 dhs_uganda_2016 tbl_10.4 Residence   Rural         vacc-card-ever_age12-23m 97.1 
##  9 dhs_uganda_2016 tbl_10.4 Region      South Central vacc-card-ever_age12-23m 95.8 
## 10 dhs_uganda_2016 tbl_10.4 Region      North Central vacc-card-ever_age12-23m 96.9 
## # ... with 206 more rows
```
…
Great\! We have a data frame that includes all the input parameters as
well as a list-column containing the scraped and reshaped tables. Let’s
take a look at the output to make sure we are on track and then use
`map_dfr` to row-bind all reshaped data frames into a single
`master_df`:

``` r
# inspect some table output
tbl_scrapes[['output']][[4]][[1]]
## # A tibble: 26 x 6
##    row_grp  row_lbl    `episode-diarrhoea_a… `ari-syptoms_age0… `episode-fever_age… `denom_age0-59m`
##    <chr>    <chr>      <chr>                 <chr>              <chr>               <chr>           
##  1 Total    Total      11.4                  0.5                6.8                 2275            
##  2 Sex      Male       12.3                  0.4                6.0                 1164            
##  3 Sex      Female     10.5                  0.6                7.6                 1111            
##  4 Area     Urban      10.1                  0.6                6.9                 1361            
##  5 Area     Rural      13.4                  0.4                6.6                 914             
##  6 Province Ryanggang  10.5                  0.9                8.3                 71              
##  7 Province North Ham… 12.7                  1.3                5.8                 221             
##  8 Province South Ham… 10.6                  0.0                9.2                 298             
##  9 Province Kangwon    9.9                   2.2                6.5                 148             
## 10 Province Jagang     12.8                  0.4                7.3                 131             
## # ... with 16 more rows
tbl_scrapes[['output']][[4]][[2]]
## # A tibble: 104 x 6
##    source           tbl_id     row_grp  row_lbl        indicator                  value
##    <chr>            <chr>      <chr>    <chr>          <chr>                      <chr>
##  1 mics_nkorea_2017 prk_tc_2.1 Total    Total          episode-diarrhoea_age0-59m 11.4 
##  2 mics_nkorea_2017 prk_tc_2.1 Sex      Male           episode-diarrhoea_age0-59m 12.3 
##  3 mics_nkorea_2017 prk_tc_2.1 Sex      Female         episode-diarrhoea_age0-59m 10.5 
##  4 mics_nkorea_2017 prk_tc_2.1 Area     Urban          episode-diarrhoea_age0-59m 10.1 
##  5 mics_nkorea_2017 prk_tc_2.1 Area     Rural          episode-diarrhoea_age0-59m 13.4 
##  6 mics_nkorea_2017 prk_tc_2.1 Province Ryanggang      episode-diarrhoea_age0-59m 10.5 
##  7 mics_nkorea_2017 prk_tc_2.1 Province North Hamgyong episode-diarrhoea_age0-59m 12.7 
##  8 mics_nkorea_2017 prk_tc_2.1 Province South Hamgyong episode-diarrhoea_age0-59m 10.6 
##  9 mics_nkorea_2017 prk_tc_2.1 Province Kangwon        episode-diarrhoea_age0-59m 9.9  
## 10 mics_nkorea_2017 prk_tc_2.1 Province Jagang         episode-diarrhoea_age0-59m 12.8 
## # ... with 94 more rows

# row-bind all reshaped data frames from 'output' list-column
full_rshp <- tbl_scrapes[["output"]] %>%
  map_dfr(2) %>%
  separate(source, c("svy_type", "country", "year"), sep = "_", remove = FALSE) %>%
  separate(indicator, c("indicator","denom_grp"), sep = "_") %>%
  mutate(value = as.numeric(value))

full_rshp
## # A tibble: 1,079 x 10
##    source     svy_type country year  tbl_id    row_grp       row_lbl      indicator  denom_grp value
##    <chr>      <chr>    <chr>   <chr> <chr>     <chr>         <chr>        <chr>      <chr>     <dbl>
##  1 dhs_haiti… dhs      haiti   2017  hti_tbl_… Milieu de ré… Urbain       hiv-posit… female      2.2
##  2 dhs_haiti… dhs      haiti   2017  hti_tbl_… Milieu de ré… Rural        hiv-posit… female      2.4
##  3 dhs_haiti… dhs      haiti   2017  hti_tbl_… Département   Aire Métrop… hiv-posit… female      2.1
##  4 dhs_haiti… dhs      haiti   2017  hti_tbl_… Département   Reste Ouest  hiv-posit… female      1.6
##  5 dhs_haiti… dhs      haiti   2017  hti_tbl_… Département   Sud-Est      hiv-posit… female      3.2
##  6 dhs_haiti… dhs      haiti   2017  hti_tbl_… Département   Nord         hiv-posit… female      2.7
##  7 dhs_haiti… dhs      haiti   2017  hti_tbl_… Département   Nord-Est     hiv-posit… female      2.1
##  8 dhs_haiti… dhs      haiti   2017  hti_tbl_… Département   Artibonite   hiv-posit… female      3.3
##  9 dhs_haiti… dhs      haiti   2017  hti_tbl_… Département   Centre       hiv-posit… female      1.5
## 10 dhs_haiti… dhs      haiti   2017  hti_tbl_… Département   Sud          hiv-posit… female      2  
## # ... with 1,069 more rows

# implement a self-join to match denominator value for each observation
master_df <- full_rshp %>%
  left_join(x = filter(., !str_detect(indicator, "denom")),
            y = filter(., str_detect(indicator, "denom")),
            by = c("source", "tbl_id", "row_grp", "row_lbl", "denom_grp")) %>% 
  select(source, svy_type = svy_type.x, country = country.x, year = year.x,
         tbl_id, row_grp, row_lbl, indicator = indicator.x, value = value.x,
         denom_grp, denom_value = value.y)

master_df
## # A tibble: 802 x 11
##    source   svy_type country year  tbl_id  row_grp   row_lbl   indicator value denom_grp denom_value
##    <chr>    <chr>    <chr>   <chr> <chr>   <chr>     <chr>     <chr>     <dbl> <chr>           <dbl>
##  1 dhs_hai… dhs      haiti   2017  hti_tb… Milieu d… Urbain    hiv-posi…   2.2 female           4479
##  2 dhs_hai… dhs      haiti   2017  hti_tb… Milieu d… Rural     hiv-posi…   2.4 female           5118
##  3 dhs_hai… dhs      haiti   2017  hti_tb… Départem… Aire Mét… hiv-posi…   2.1 female           2438
##  4 dhs_hai… dhs      haiti   2017  hti_tb… Départem… Reste Ou… hiv-posi…   1.6 female           1559
##  5 dhs_hai… dhs      haiti   2017  hti_tb… Départem… Sud-Est   hiv-posi…   3.2 female            502
##  6 dhs_hai… dhs      haiti   2017  hti_tb… Départem… Nord      hiv-posi…   2.7 female           1044
##  7 dhs_hai… dhs      haiti   2017  hti_tb… Départem… Nord-Est  hiv-posi…   2.1 female            355
##  8 dhs_hai… dhs      haiti   2017  hti_tb… Départem… Artiboni… hiv-posi…   3.3 female           1373
##  9 dhs_hai… dhs      haiti   2017  hti_tb… Départem… Centre    hiv-posi…   1.5 female            612
## 10 dhs_hai… dhs      haiti   2017  hti_tb… Départem… Sud       hiv-posi…   2   female            626
## # ... with 792 more rows
```
…
